EESchema Schematic File Version 4
EELAYER 26 0
EELAYER END
$Descr A4 11693 8268
encoding utf-8
Sheet 1 1
Title "CleanRoomShield.sch"
Date "16 JAN 2018"
Rev ""
Comp ""
Comment1 ""
Comment2 ""
Comment3 ""
Comment4 ""
$EndDescr
Text Notes 8650 4900 0    70   ~ 0
GND
Text Notes 6650 2400 0    70   ~ 0
GND
Text Notes 6550 3000 0    70   ~ 0
GND
Text Notes 6450 3700 0    70   ~ 0
GND
Text Notes 7050 4400 0    70   ~ 0
GND
Text Notes 8650 2100 0    70   ~ 0
GND
Text Notes 1750 1800 0    70   ~ 0
GNDa
Text Notes 7250 2200 0    70   ~ 0
SCK1
Text Notes 7450 3700 0    70   ~ 0
SCK2
Text Notes 7350 3900 0    70   ~ 0
SCK3
Text Notes 6650 4200 0    70   ~ 0
SCK4
Text Notes 5950 2500 0    70   ~ 0
DATA1
Text Notes 5750 3200 0    70   ~ 0
DATA2
Text Notes 5650 3800 0    70   ~ 0
DATA3
Text Notes 5750 4600 0    70   ~ 0
DATA4
Text Notes 5850 1500 0    70   ~ 0
VDD
Text Notes 6450 2200 0    70   ~ 0
VDD
Text Notes 6450 2900 0    70   ~ 0
VDD
Text Notes 6450 3600 0    70   ~ 0
VDD
Text Notes 5950 6600 0    70   ~ 0
Male DB9
Text Notes 1250 1600 0    70   ~ 0
JP1 to JP6 are jumpers
Text Notes 9950 4100 0    70   ~ 0
Male header
Text Notes 4550 3100 0    70   ~ 0
Male header
$Comp
L CleanRoomShield:MPT6 ANALOG233
U 1 1 5A5E21E2
P 3750 2300
F 0 "ANALOG233" H 3890 2275 70  0000 L BNN
F 1 "" H 3740 2190 65  0001 L TNN
F 2 "6POL254" H 3740 2090 65  0001 L TNN
F 3 "" H 3750 2300 50  0001 C CNN
	1    3750 2300
	1    0    0    -1  
$EndComp
$Comp
L CleanRoomShield:MPT6 ANALOG233
U 2 1 5A5E2246
P 3750 2500
F 0 "ANALOG233" H 3890 2475 70  0000 L BNN
F 1 "" H 3740 2390 65  0001 L TNN
F 2 "6POL254" H 3740 2290 65  0001 L TNN
F 3 "" H 3750 2500 50  0001 C CNN
	2    3750 2500
	1    0    0    -1  
$EndComp
$Comp
L CleanRoomShield:MPT6 ANALOG233
U 3 1 5A5E22AA
P 3750 2700
F 0 "ANALOG233" H 3890 2675 70  0000 L BNN
F 1 "" H 3740 2590 65  0001 L TNN
F 2 "6POL254" H 3740 2490 65  0001 L TNN
F 3 "" H 3750 2700 50  0001 C CNN
	3    3750 2700
	1    0    0    -1  
$EndComp
$Comp
L CleanRoomShield:MPT6 ANALOG233
U 4 1 5A5E230E
P 3750 2900
F 0 "ANALOG233" H 3890 2875 70  0000 L BNN
F 1 "" H 3740 2790 65  0001 L TNN
F 2 "6POL254" H 3740 2690 65  0001 L TNN
F 3 "" H 3750 2900 50  0001 C CNN
	4    3750 2900
	1    0    0    -1  
$EndComp
$Comp
L CleanRoomShield:MPT6 ANALOG233
U 5 1 5A5E2372
P 3750 3100
F 0 "ANALOG233" H 3890 3075 70  0000 L BNN
F 1 "" H 3740 2990 65  0001 L TNN
F 2 "6POL254" H 3740 2890 65  0001 L TNN
F 3 "" H 3750 3100 50  0001 C CNN
	5    3750 3100
	1    0    0    -1  
$EndComp
$Comp
L CleanRoomShield:MPT6 ANALOG233
U 6 1 5A5E23D6
P 3750 3300
F 0 "ANALOG233" H 3890 3275 70  0000 L BNN
F 1 "" H 3740 3190 65  0001 L TNN
F 2 "6POL254" H 3740 3090 65  0001 L TNN
F 3 "" H 3750 3300 50  0001 C CNN
	6    3750 3300
	1    0    0    -1  
$EndComp
$Comp
L CleanRoomShield:CC0603 C1
U 1 1 5A5E249E
P 3550 4600
F 0 "C1" H 3610 4614 70  0000 L BNN
F 1 "1uF" H 3609 4415 70  0000 L BNN
F 2 "C0603" H 3540 4390 65  0001 L TNN
F 3 "" H 3550 4600 50  0001 C CNN
	1    3550 4600
	1    0    0    -1  
$EndComp
$Comp
L CleanRoomShield:CC0603 C2
U 1 1 5A5E2566
P 3350 5000
F 0 "C2" H 3410 5014 70  0000 L BNN
F 1 "1uF" H 3409 4815 70  0000 L BNN
F 2 "C0603" H 3340 4790 65  0001 L TNN
F 3 "" H 3350 5000 50  0001 C CNN
	1    3350 5000
	1    0    0    -1  
$EndComp
$Comp
L CleanRoomShield:CC0603 C3
U 1 1 5A5E262E
P 4250 6100
F 0 "C3" H 4310 6114 70  0000 L BNN
F 1 "1uF" H 4309 5915 70  0000 L BNN
F 2 "C0603" H 4240 5890 65  0001 L TNN
F 3 "" H 4250 6100 50  0001 C CNN
	1    4250 6100
	1    0    0    -1  
$EndComp
$Comp
L CleanRoomShield:CC0603 C4
U 1 1 5A5E26F6
P 5050 4600
F 0 "C4" H 5110 4615 70  0000 L BNN
F 1 "1uF" H 5110 4415 70  0000 L BNN
F 2 "C0603" H 5040 4390 65  0001 L TNN
F 3 "" H 5050 4600 50  0001 C CNN
	1    5050 4600
	0    -1   -1   0   
$EndComp
$Comp
L CleanRoomShield:CC0603 C5
U 1 1 5A5E27BE
P 5050 4800
F 0 "C5" H 5110 4815 70  0000 L BNN
F 1 "1uF" H 5110 4615 70  0000 L BNN
F 2 "C0603" H 5040 4590 65  0001 L TNN
F 3 "" H 5050 4800 50  0001 C CNN
	1    5050 4800
	0    -1   -1   0   
$EndComp
$Comp
L CleanRoomShield:MPT8 DIGITAL1
U 1 1 5A5E2886
P 9250 4800
F 0 "DIGITAL1" H 9390 4775 70  0000 L BNN
F 1 "" H 9240 4690 65  0001 L TNN
F 2 "8POL254" H 9240 4590 65  0001 L TNN
F 3 "" H 9250 4800 50  0001 C CNN
	1    9250 4800
	1    0    0    -1  
$EndComp
$Comp
L CleanRoomShield:MPT8 DIGITAL1
U 2 1 5A5E28EA
P 9250 4600
F 0 "DIGITAL1" H 9390 4575 70  0000 L BNN
F 1 "" H 9240 4490 65  0001 L TNN
F 2 "8POL254" H 9240 4390 65  0001 L TNN
F 3 "" H 9250 4600 50  0001 C CNN
	2    9250 4600
	1    0    0    -1  
$EndComp
$Comp
L CleanRoomShield:MPT8 DIGITAL1
U 3 1 5A5E294E
P 8250 4500
F 0 "DIGITAL1" H 8390 4475 70  0000 L BNN
F 1 "" H 8240 4390 65  0001 L TNN
F 2 "8POL254" H 8240 4290 65  0001 L TNN
F 3 "" H 8250 4500 50  0001 C CNN
	3    8250 4500
	1    0    0    -1  
$EndComp
$Comp
L CleanRoomShield:MPT8 DIGITAL1
U 4 1 5A5E29B2
P 8350 4300
F 0 "DIGITAL1" H 8490 4275 70  0000 L BNN
F 1 "" H 8340 4190 65  0001 L TNN
F 2 "8POL254" H 8340 4090 65  0001 L TNN
F 3 "" H 8350 4300 50  0001 C CNN
	4    8350 4300
	1    0    0    -1  
$EndComp
$Comp
L CleanRoomShield:MPT8 DIGITAL1
U 5 1 5A5E2A16
P 8350 4100
F 0 "DIGITAL1" H 8490 4075 70  0000 L BNN
F 1 "" H 8340 3990 65  0001 L TNN
F 2 "8POL254" H 8340 3890 65  0001 L TNN
F 3 "" H 8350 4100 50  0001 C CNN
	5    8350 4100
	1    0    0    -1  
$EndComp
$Comp
L CleanRoomShield:MPT8 DIGITAL1
U 6 1 5A5E2A7A
P 8350 3900
F 0 "DIGITAL1" H 8490 3875 70  0000 L BNN
F 1 "" H 8340 3790 65  0001 L TNN
F 2 "8POL254" H 8340 3690 65  0001 L TNN
F 3 "" H 8350 3900 50  0001 C CNN
	6    8350 3900
	1    0    0    -1  
$EndComp
$Comp
L CleanRoomShield:MPT8 DIGITAL1
U 7 1 5A5E2ADE
P 8350 3800
F 0 "DIGITAL1" H 8490 3775 70  0000 L BNN
F 1 "" H 8340 3690 65  0001 L TNN
F 2 "8POL254" H 8340 3590 65  0001 L TNN
F 3 "" H 8350 3800 50  0001 C CNN
	7    8350 3800
	1    0    0    -1  
$EndComp
$Comp
L CleanRoomShield:MPT8 DIGITAL1
U 8 1 5A5E2B42
P 8350 3700
F 0 "DIGITAL1" H 8490 3675 70  0000 L BNN
F 1 "" H 8340 3590 65  0001 L TNN
F 2 "8POL254" H 8340 3490 65  0001 L TNN
F 3 "" H 8350 3700 50  0001 C CNN
	8    8350 3700
	1    0    0    -1  
$EndComp
$Comp
L CleanRoomShield:MPT8 DIGITAL2
U 1 1 5A5E2C0A
P 7750 2800
F 0 "DIGITAL2" H 7890 2775 70  0000 L BNN
F 1 "" H 7740 2690 65  0001 L TNN
F 2 "8POL254" H 7740 2590 65  0001 L TNN
F 3 "" H 7750 2800 50  0001 C CNN
	1    7750 2800
	1    0    0    -1  
$EndComp
$Comp
L CleanRoomShield:MPT8 DIGITAL2
U 2 1 5A5E2C6E
P 7750 2700
F 0 "DIGITAL2" H 7890 2675 70  0000 L BNN
F 1 "" H 7740 2590 65  0001 L TNN
F 2 "8POL254" H 7740 2490 65  0001 L TNN
F 3 "" H 7750 2700 50  0001 C CNN
	2    7750 2700
	1    0    0    -1  
$EndComp
$Comp
L CleanRoomShield:MPT8 DIGITAL2
U 3 1 5A5E2CD2
P 8650 2500
F 0 "DIGITAL2" H 8790 2475 70  0000 L BNN
F 1 "" H 8640 2390 65  0001 L TNN
F 2 "8POL254" H 8640 2290 65  0001 L TNN
F 3 "" H 8650 2500 50  0001 C CNN
	3    8650 2500
	1    0    0    -1  
$EndComp
$Comp
L CleanRoomShield:MPT8 DIGITAL2
U 4 1 5A5E2D36
P 10250 1700
F 0 "DIGITAL2" H 10390 1675 70  0000 L BNN
F 1 "" H 10240 1590 65  0001 L TNN
F 2 "8POL254" H 10240 1490 65  0001 L TNN
F 3 "" H 10250 1700 50  0001 C CNN
	4    10250 1700
	1    0    0    -1  
$EndComp
$Comp
L CleanRoomShield:MPT8 DIGITAL2
U 5 1 5A5E2D9A
P 10250 1500
F 0 "DIGITAL2" H 10390 1475 70  0000 L BNN
F 1 "" H 10240 1390 65  0001 L TNN
F 2 "8POL254" H 10240 1290 65  0001 L TNN
F 3 "" H 10250 1500 50  0001 C CNN
	5    10250 1500
	1    0    0    -1  
$EndComp
$Comp
L CleanRoomShield:MPT8 DIGITAL2
U 6 1 5A5E2DFE
P 9250 2200
F 0 "DIGITAL2" H 9390 2175 70  0000 L BNN
F 1 "" H 9240 2090 65  0001 L TNN
F 2 "8POL254" H 9240 1990 65  0001 L TNN
F 3 "" H 9250 2200 50  0001 C CNN
	6    9250 2200
	1    0    0    -1  
$EndComp
$Comp
L CleanRoomShield:MPT8 DIGITAL2
U 7 1 5A5E2E62
P 9050 3000
F 0 "DIGITAL2" H 9190 2975 70  0000 L BNN
F 1 "" H 9040 2890 65  0001 L TNN
F 2 "8POL254" H 9040 2790 65  0001 L TNN
F 3 "" H 9050 3000 50  0001 C CNN
	7    9050 3000
	1    0    0    -1  
$EndComp
$Comp
L CleanRoomShield:MPT8 DIGITAL2
U 8 1 5A5E2EC6
P 10350 2400
F 0 "DIGITAL2" H 10490 2375 70  0000 L BNN
F 1 "" H 10340 2290 65  0001 L TNN
F 2 "8POL254" H 10340 2190 65  0001 L TNN
F 3 "" H 10350 2400 50  0001 C CNN
	8    10350 2400
	1    0    0    -1  
$EndComp
$Comp
L CleanRoomShield:MAX232ECWE IC1
U 1 1 5A5E2F8E
P 4350 5000
F 0 "IC1" H 3951 5625 70  0000 L BNN
F 1 "" H 4340 4890 65  0001 L TNN
F 2 "SO16L" H 4340 4790 65  0001 L TNN
F 3 "" H 4350 5000 50  0001 C CNN
	1    4350 5000
	1    0    0    -1  
$EndComp
$Comp
L CleanRoomShield:MAX232ECWE IC1
U 2 1 5A5E2FF2
P 4650 6000
F 0 "IC1" H 4620 5970 70  0000 L BNN
F 1 "" H 4640 5890 65  0001 L TNN
F 2 "SO16L" H 4640 5790 65  0001 L TNN
F 3 "" H 4650 6000 50  0001 C CNN
	2    4650 6000
	0    -1   -1   0   
$EndComp
$Comp
L CleanRoomShield:JP3QE JP1
U 1 1 5A5E30BA
P 2250 2200
F 0 "JP1" V 2200 2200 70  0000 L BNN
F 1 "" H 2240 2090 65  0001 L TNN
F 2 "JP3Q" H 2240 1990 65  0001 L TNN
F 3 "" H 2250 2200 50  0001 C CNN
	1    2250 2200
	-1   0    0    1   
$EndComp
$Comp
L CleanRoomShield:JP3QE JP1
U 2 1 5A5E311E
P 2450 2300
F 0 "JP1" V 2400 2300 70  0000 L BNN
F 1 "" H 2440 2190 65  0001 L TNN
F 2 "JP3Q" H 2440 2090 65  0001 L TNN
F 3 "" H 2450 2300 50  0001 C CNN
	2    2450 2300
	-1   0    0    1   
$EndComp
$Comp
L CleanRoomShield:JP3QE JP1
U 3 1 5A5E3182
P 2750 2500
F 0 "JP1" V 2700 2500 70  0000 L BNN
F 1 "" H 2740 2390 65  0001 L TNN
F 2 "JP3Q" H 2740 2290 65  0001 L TNN
F 3 "" H 2750 2500 50  0001 C CNN
	3    2750 2500
	-1   0    0    1   
$EndComp
$Comp
L CleanRoomShield:JP3QE JP2
U 1 1 5A5E324A
P 2350 2700
F 0 "JP2" V 2300 2700 70  0000 L BNN
F 1 "" H 2340 2590 65  0001 L TNN
F 2 "JP3Q" H 2340 2490 65  0001 L TNN
F 3 "" H 2350 2700 50  0001 C CNN
	1    2350 2700
	0    1    1    0   
$EndComp
$Comp
L CleanRoomShield:JP3QE JP2
U 2 1 5A5E32AE
P 2650 2800
F 0 "JP2" V 2600 2800 70  0000 L BNN
F 1 "" H 2640 2690 65  0001 L TNN
F 2 "JP3Q" H 2640 2590 65  0001 L TNN
F 3 "" H 2650 2800 50  0001 C CNN
	2    2650 2800
	0    1    1    0   
$EndComp
$Comp
L CleanRoomShield:JP3QE JP2
U 3 1 5A5E3312
P 2950 2900
F 0 "JP2" V 2900 2900 70  0000 L BNN
F 1 "" H 2940 2790 65  0001 L TNN
F 2 "JP3Q" H 2940 2690 65  0001 L TNN
F 3 "" H 2950 2900 50  0001 C CNN
	3    2950 2900
	0    1    1    0   
$EndComp
$Comp
L CleanRoomShield:JP3QE JP3
U 1 1 5A5E33DA
P 2350 3200
F 0 "JP3" V 2300 3200 70  0000 L BNN
F 1 "" H 2340 3090 65  0001 L TNN
F 2 "JP3Q" H 2340 2990 65  0001 L TNN
F 3 "" H 2350 3200 50  0001 C CNN
	1    2350 3200
	0    1    1    0   
$EndComp
$Comp
L CleanRoomShield:JP3QE JP3
U 2 1 5A5E343E
P 2650 3300
F 0 "JP3" V 2600 3300 70  0000 L BNN
F 1 "" H 2640 3190 65  0001 L TNN
F 2 "JP3Q" H 2640 3090 65  0001 L TNN
F 3 "" H 2650 3300 50  0001 C CNN
	2    2650 3300
	0    1    1    0   
$EndComp
$Comp
L CleanRoomShield:JP3QE JP3
U 3 1 5A5E34A2
P 2950 3400
F 0 "JP3" V 2900 3400 70  0000 L BNN
F 1 "" H 2940 3290 65  0001 L TNN
F 2 "JP3Q" H 2940 3190 65  0001 L TNN
F 3 "" H 2950 3400 50  0001 C CNN
	3    2950 3400
	0    1    1    0   
$EndComp
$Comp
L CleanRoomShield:JP3QE JP4
U 1 1 5A5E356A
P 2350 3700
F 0 "JP4" V 2300 3700 70  0000 L BNN
F 1 "" V 2575 3700 70  0000 L BNN
F 2 "JP3Q" H 2340 3490 65  0001 L TNN
F 3 "" H 2350 3700 50  0001 C CNN
	1    2350 3700
	0    1    1    0   
$EndComp
$Comp
L CleanRoomShield:JP3QE JP4
U 2 1 5A5E35CE
P 2650 3800
F 0 "JP4" V 2600 3800 70  0000 L BNN
F 1 "" H 2640 3690 65  0001 L TNN
F 2 "JP3Q" H 2640 3590 65  0001 L TNN
F 3 "" H 2650 3800 50  0001 C CNN
	2    2650 3800
	0    1    1    0   
$EndComp
$Comp
L CleanRoomShield:JP3QE JP4
U 3 1 5A5E3632
P 2950 3900
F 0 "JP4" V 2900 3900 70  0000 L BNN
F 1 "" H 2940 3790 65  0001 L TNN
F 2 "JP3Q" H 2940 3690 65  0001 L TNN
F 3 "" H 2950 3900 50  0001 C CNN
	3    2950 3900
	0    1    1    0   
$EndComp
$Comp
L CleanRoomShield:JP3QE JP5
U 1 1 5A5E36FA
P 2350 4200
F 0 "JP5" V 2300 4200 70  0000 L BNN
F 1 "" H 2340 4090 65  0001 L TNN
F 2 "JP3Q" H 2340 3990 65  0001 L TNN
F 3 "" H 2350 4200 50  0001 C CNN
	1    2350 4200
	0    1    1    0   
$EndComp
$Comp
L CleanRoomShield:JP3QE JP5
U 2 1 5A5E375E
P 2650 4600
F 0 "JP5" V 2600 4600 70  0000 L BNN
F 1 "" H 2640 4490 65  0001 L TNN
F 2 "JP3Q" H 2640 4390 65  0001 L TNN
F 3 "" H 2650 4600 50  0001 C CNN
	2    2650 4600
	0    1    1    0   
$EndComp
$Comp
L CleanRoomShield:JP3QE JP5
U 3 1 5A5E37C2
P 2950 4700
F 0 "JP5" V 2900 4700 70  0000 L BNN
F 1 "" H 2940 4590 65  0001 L TNN
F 2 "JP3Q" H 2940 4490 65  0001 L TNN
F 3 "" H 2950 4700 50  0001 C CNN
	3    2950 4700
	0    1    1    0   
$EndComp
$Comp
L CleanRoomShield:JP3QE JP6
U 1 1 5A5E388A
P 2450 5100
F 0 "JP6" V 2400 5100 70  0000 L BNN
F 1 "" H 2440 4990 65  0001 L TNN
F 2 "JP3Q" H 2440 4890 65  0001 L TNN
F 3 "" H 2450 5100 50  0001 C CNN
	1    2450 5100
	0    1    1    0   
$EndComp
$Comp
L CleanRoomShield:JP3QE JP6
U 2 1 5A5E38EE
P 2650 5200
F 0 "JP6" V 2600 5200 70  0000 L BNN
F 1 "" H 2640 5090 65  0001 L TNN
F 2 "JP3Q" H 2640 4990 65  0001 L TNN
F 3 "" H 2650 5200 50  0001 C CNN
	2    2650 5200
	0    1    1    0   
$EndComp
$Comp
L CleanRoomShield:JP3QE JP6
U 3 1 5A5E3952
P 2950 5500
F 0 "JP6" V 2900 5500 70  0000 L BNN
F 1 "" H 2940 5390 65  0001 L TNN
F 2 "JP3Q" H 2940 5290 65  0001 L TNN
F 3 "" H 2950 5500 50  0001 C CNN
	3    2950 5500
	0    1    1    0   
$EndComp
$Comp
L CleanRoomShield:MA06-2 NTC233
U 1 1 5A5E3A1A
P 4850 2500
F 0 "NTC233" H 4701 2830 70  0000 L BNN
F 1 "" H 4840 2390 65  0001 L TNN
F 2 "MA06-2" H 4840 2290 65  0001 L TNN
F 3 "" H 4850 2500 50  0001 C CNN
	1    4850 2500
	1    0    0    -1  
$EndComp
$Comp
L CleanRoomShield:MPT6 POWER233
U 1 1 5A5E3AE2
P 2550 1100
F 0 "POWER233" H 2690 1075 70  0000 L BNN
F 1 "" H 2540 990 65  0001 L TNN
F 2 "6POL254" H 2540 890 65  0001 L TNN
F 3 "" H 2550 1100 50  0001 C CNN
	1    2550 1100
	1    0    0    -1  
$EndComp
$Comp
L CleanRoomShield:MPT6 POWER233
U 2 1 5A5E3B46
P 2550 1300
F 0 "POWER233" H 2690 1275 70  0000 L BNN
F 1 "" H 2540 1190 65  0001 L TNN
F 2 "6POL254" H 2540 1090 65  0001 L TNN
F 3 "" H 2550 1300 50  0001 C CNN
	2    2550 1300
	1    0    0    -1  
$EndComp
$Comp
L CleanRoomShield:MPT6 POWER233
U 3 1 5A5E3BAA
P 2550 1500
F 0 "POWER233" H 2690 1475 70  0000 L BNN
F 1 "" H 2540 1390 65  0001 L TNN
F 2 "6POL254" H 2540 1290 65  0001 L TNN
F 3 "" H 2550 1500 50  0001 C CNN
	3    2550 1500
	1    0    0    -1  
$EndComp
$Comp
L CleanRoomShield:MPT6 POWER233
U 4 1 5A5E3C0E
P 2550 1700
F 0 "POWER233" H 2690 1675 70  0000 L BNN
F 1 "" H 2540 1590 65  0001 L TNN
F 2 "6POL254" H 2540 1490 65  0001 L TNN
F 3 "" H 2550 1700 50  0001 C CNN
	4    2550 1700
	1    0    0    -1  
$EndComp
$Comp
L CleanRoomShield:MPT6 POWER233
U 5 1 5A5E3C72
P 2550 1900
F 0 "POWER233" H 2690 1875 70  0000 L BNN
F 1 "" H 2540 1790 65  0001 L TNN
F 2 "6POL254" H 2540 1690 65  0001 L TNN
F 3 "" H 2550 1900 50  0001 C CNN
	5    2550 1900
	1    0    0    -1  
$EndComp
$Comp
L CleanRoomShield:MPT6 POWER233
U 6 1 5A5E3CD6
P 2550 2100
F 0 "POWER233" H 2690 2075 70  0000 L BNN
F 1 "" H 2540 1990 65  0001 L TNN
F 2 "6POL254" H 2540 1890 65  0001 L TNN
F 3 "" H 2550 2100 50  0001 C CNN
	6    2550 2100
	1    0    0    -1  
$EndComp
$Comp
L CleanRoomShield:R-EU_M0805 R1
U 1 1 5A5E3D9E
P 1950 2100
F 0 "R1" H 1800 2159 70  0000 L BNN
F 1 "1k" H 1800 1970 70  0000 L BNN
F 2 "M0805" H 1940 1890 65  0001 L TNN
F 3 "" H 1950 2100 50  0001 C CNN
	1    1950 2100
	1    0    0    -1  
$EndComp
$Comp
L CleanRoomShield:R-EU_M0805 R1S233
U 1 1 5A5E3E66
P 5650 2100
F 0 "R1S233" H 5500 2159 70  0000 L BNN
F 1 "10k" H 5500 1970 70  0000 L BNN
F 2 "M0805" H 5640 1890 65  0001 L TNN
F 3 "" H 5650 2100 50  0001 C CNN
	1    5650 2100
	1    0    0    -1  
$EndComp
$Comp
L CleanRoomShield:R-EU_M0805 R2
U 1 1 5A5E3F2E
P 1750 2300
F 0 "R2" H 1600 2359 70  0000 L BNN
F 1 "10k" H 1600 2170 70  0000 L BNN
F 2 "M0805" H 1740 2090 65  0001 L TNN
F 3 "" H 1750 2300 50  0001 C CNN
	1    1750 2300
	1    0    0    -1  
$EndComp
$Comp
L CleanRoomShield:R-EU_M0805 R2S233
U 1 1 5A5E3FF6
P 5650 2900
F 0 "R2S233" H 5500 2959 70  0000 L BNN
F 1 "10k" H 5500 2770 70  0000 L BNN
F 2 "M0805" H 5640 2690 65  0001 L TNN
F 3 "" H 5650 2900 50  0001 C CNN
	1    5650 2900
	1    0    0    -1  
$EndComp
$Comp
L CleanRoomShield:R-EU_M0805 R3
U 1 1 5A5E40BE
P 2050 2500
F 0 "R3" H 1900 2559 70  0000 L BNN
F 1 "100k" H 1900 2370 70  0000 L BNN
F 2 "M0805" H 2040 2290 65  0001 L TNN
F 3 "" H 2050 2500 50  0001 C CNN
	1    2050 2500
	1    0    0    -1  
$EndComp
$Comp
L CleanRoomShield:R-EU_M0805 R3S233
U 1 1 5A5E4186
P 5750 3600
F 0 "R3S233" H 5600 3659 70  0000 L BNN
F 1 "10k" H 5600 3470 70  0000 L BNN
F 2 "M0805" H 5740 3390 65  0001 L TNN
F 3 "" H 5750 3600 50  0001 C CNN
	1    5750 3600
	1    0    0    -1  
$EndComp
$Comp
L CleanRoomShield:R-EU_M0805 R4
U 1 1 5A5E424E
P 2050 2800
F 0 "R4" H 1900 2859 70  0000 L BNN
F 1 "1k" H 1900 2670 70  0000 L BNN
F 2 "M0805" H 2040 2590 65  0001 L TNN
F 3 "" H 2050 2800 50  0001 C CNN
	1    2050 2800
	1    0    0    -1  
$EndComp
$Comp
L CleanRoomShield:R-EU_M0805 R4S233
U 1 1 5A5E4316
P 5650 4300
F 0 "R4S233" H 5500 4359 70  0000 L BNN
F 1 "10k" H 5500 4170 70  0000 L BNN
F 2 "M0805" H 5640 4090 65  0001 L TNN
F 3 "" H 5650 4300 50  0001 C CNN
	1    5650 4300
	1    0    0    -1  
$EndComp
$Comp
L CleanRoomShield:R-EU_M0805 R5
U 1 1 5A5E43DE
P 1850 2900
F 0 "R5" H 1700 2959 70  0000 L BNN
F 1 "10k" H 1700 2770 70  0000 L BNN
F 2 "M0805" H 1840 2690 65  0001 L TNN
F 3 "" H 1850 2900 50  0001 C CNN
	1    1850 2900
	1    0    0    -1  
$EndComp
$Comp
L CleanRoomShield:R-EU_M0805 R6
U 1 1 5A5E44A6
P 2150 3000
F 0 "R6" H 2000 3059 70  0000 L BNN
F 1 "100k" H 2000 2870 70  0000 L BNN
F 2 "M0805" H 2140 2790 65  0001 L TNN
F 3 "" H 2150 3000 50  0001 C CNN
	1    2150 3000
	1    0    0    -1  
$EndComp
$Comp
L CleanRoomShield:R-EU_M0805 R7
U 1 1 5A5E456E
P 2050 3300
F 0 "R7" H 1900 3359 70  0000 L BNN
F 1 "1k" H 1900 3170 70  0000 L BNN
F 2 "M0805" H 2040 3090 65  0001 L TNN
F 3 "" H 2050 3300 50  0001 C CNN
	1    2050 3300
	1    0    0    -1  
$EndComp
$Comp
L CleanRoomShield:R-EU_M0805 R8
U 1 1 5A5E4636
P 1850 3400
F 0 "R8" H 1700 3459 70  0000 L BNN
F 1 "10k" H 1700 3270 70  0000 L BNN
F 2 "M0805" H 1840 3190 65  0001 L TNN
F 3 "" H 1850 3400 50  0001 C CNN
	1    1850 3400
	1    0    0    -1  
$EndComp
$Comp
L CleanRoomShield:R-EU_M0805 R9
U 1 1 5A5E46FE
P 2150 3500
F 0 "R9" H 2000 3559 70  0000 L BNN
F 1 "100k" H 2000 3370 70  0000 L BNN
F 2 "M0805" H 2140 3290 65  0001 L TNN
F 3 "" H 2150 3500 50  0001 C CNN
	1    2150 3500
	1    0    0    -1  
$EndComp
$Comp
L CleanRoomShield:R-EU_M0805 R10
U 1 1 5A5E47C6
P 2050 3800
F 0 "R10" H 1900 3859 70  0000 L BNN
F 1 "1k" H 1900 3670 70  0000 L BNN
F 2 "M0805" H 2040 3590 65  0001 L TNN
F 3 "" H 2050 3800 50  0001 C CNN
	1    2050 3800
	1    0    0    -1  
$EndComp
$Comp
L CleanRoomShield:R-EU_M0805 R11
U 1 1 5A5E488E
P 1750 3900
F 0 "R11" H 1600 3959 70  0000 L BNN
F 1 "10k" H 1600 3770 70  0000 L BNN
F 2 "M0805" H 1740 3690 65  0001 L TNN
F 3 "" H 1750 3900 50  0001 C CNN
	1    1750 3900
	1    0    0    -1  
$EndComp
$Comp
L CleanRoomShield:R-EU_M0805 R12
U 1 1 5A5E4956
P 2050 4000
F 0 "R12" H 1900 4059 70  0000 L BNN
F 1 "100k" H 1900 3870 70  0000 L BNN
F 2 "M0805" H 2040 3790 65  0001 L TNN
F 3 "" H 2050 4000 50  0001 C CNN
	1    2050 4000
	1    0    0    -1  
$EndComp
$Comp
L CleanRoomShield:R-EU_M0805 R13
U 1 1 5A5E4A1E
P 2150 4400
F 0 "R13" H 2000 4459 70  0000 L BNN
F 1 "1k" H 2000 4270 70  0000 L BNN
F 2 "M0805" H 2140 4190 65  0001 L TNN
F 3 "" H 2150 4400 50  0001 C CNN
	1    2150 4400
	1    0    0    -1  
$EndComp
$Comp
L CleanRoomShield:R-EU_M0805 R14
U 1 1 5A5E4AE6
P 1650 4700
F 0 "R14" H 1500 4759 70  0000 L BNN
F 1 "10k" H 1500 4570 70  0000 L BNN
F 2 "M0805" H 1640 4490 65  0001 L TNN
F 3 "" H 1650 4700 50  0001 C CNN
	1    1650 4700
	1    0    0    -1  
$EndComp
$Comp
L CleanRoomShield:R-EU_M0805 R15
U 1 1 5A5E4BAE
P 2150 4800
F 0 "R15" H 2000 4859 70  0000 L BNN
F 1 "100k" H 2000 4670 70  0000 L BNN
F 2 "M0805" H 2140 4590 65  0001 L TNN
F 3 "" H 2150 4800 50  0001 C CNN
	1    2150 4800
	1    0    0    -1  
$EndComp
$Comp
L CleanRoomShield:R-EU_M0805 R16
U 1 1 5A5E4C76
P 2050 5000
F 0 "R16" H 1900 5059 70  0000 L BNN
F 1 "1k" H 1900 4870 70  0000 L BNN
F 2 "M0805" H 2040 4790 65  0001 L TNN
F 3 "" H 2050 5000 50  0001 C CNN
	1    2050 5000
	1    0    0    -1  
$EndComp
$Comp
L CleanRoomShield:R-EU_M0805 R17
U 1 1 5A5E4D3E
P 1950 5300
F 0 "R17" H 1800 5359 70  0000 L BNN
F 1 "10k" H 1800 5170 70  0000 L BNN
F 2 "M0805" H 1940 5090 65  0001 L TNN
F 3 "" H 1950 5300 50  0001 C CNN
	1    1950 5300
	1    0    0    -1  
$EndComp
$Comp
L CleanRoomShield:R-EU_M0805 R18
U 1 1 5A5E4E06
P 2150 5600
F 0 "R18" H 2000 5659 70  0000 L BNN
F 1 "100k" H 2000 5470 70  0000 L BNN
F 2 "M0805" H 2140 5390 65  0001 L TNN
F 3 "" H 2150 5600 50  0001 C CNN
	1    2150 5600
	1    0    0    -1  
$EndComp
$Comp
L CleanRoomShield:M09H RS232
U 1 1 5A5E4ECE
P 5050 6500
F 0 "RS232" H 4900 6850 70  0000 L BNN
F 1 "" H 5040 6390 65  0001 L TNN
F 2 "M09H" H 5040 6290 65  0001 L TNN
F 3 "" H 5050 6500 50  0001 C CNN
	1    5050 6500
	0    1    1    0   
$EndComp
$Comp
L CleanRoomShield:MA08-2 SHT233
U 1 1 5A5E4F96
P 10250 3500
F 0 "SHT233" H 10101 4030 70  0000 L BNN
F 1 "" H 10240 3390 65  0001 L TNN
F 2 "MA08-2" H 10240 3290 65  0001 L TNN
F 3 "" H 10250 3500 50  0001 C CNN
	1    10250 3500
	1    0    0    -1  
$EndComp
$Comp
L CleanRoomShield:VPDEV0 VP_0
U 1 1 5A5E505E
P 915 1026
F 0 "VP_0" H 905 1016 65  0001 L TNN
F 1 "VPDEV0" H 905 916 65  0001 L TNN
F 2 "VPAC0" H 905 816 65  0001 L TNN
F 3 "" H 915 1026 50  0001 C CNN
	1    915  1026
	1    0    0    -1  
$EndComp
Wire Wire Line
	4350 6000 4250 6000
Wire Wire Line
	4250 6000 4050 6000
Connection ~ 4250 6000
Text Label 4150 6000 0    65   ~ 0
5V
Wire Wire Line
	5150 2500 3750 1500
Wire Wire Line
	3750 1500 2450 1500
Text Label 3350 1500 0    65   ~ 0
5V
Wire Wire Line
	5250 4600 5450 4600
Text Label 5350 4600 0    65   ~ 0
5V
Wire Wire Line
	915  1026 815  1026
Text Label 815  1026 0    65   ~ 0
5V
Wire Wire Line
	5450 2100 5550 2400
Wire Wire Line
	5550 2400 6350 2400
Wire Wire Line
	6350 2400 6350 2600
Wire Wire Line
	6350 2600 7450 2600
Wire Wire Line
	7450 2600 7450 2800
Wire Wire Line
	7450 2800 7650 2800
Wire Wire Line
	9950 3700 9650 3700
Text Label 9650 3700 0    65   ~ 0
DATA1
Wire Wire Line
	9950 3500 9650 3500
Text Label 9650 3500 0    65   ~ 0
DATA2
Wire Wire Line
	5550 3100 5450 2900
Wire Wire Line
	7950 3100 7950 3800
Wire Wire Line
	7950 3800 8250 3800
Wire Wire Line
	5550 3100 7950 3100
Wire Wire Line
	6050 4000 7050 4000
Wire Wire Line
	7050 4000 7050 4100
Wire Wire Line
	7050 4100 8250 4100
Wire Wire Line
	5550 3600 5550 3800
Wire Wire Line
	5550 3800 6050 3800
Wire Wire Line
	6050 4000 6050 3800
Wire Wire Line
	9950 3300 9650 3300
Text Label 9650 3300 0    65   ~ 0
DATA3
Wire Wire Line
	5450 4300 5550 4500
Wire Wire Line
	5550 4500 8150 4500
Wire Wire Line
	9950 3100 9650 3100
Text Label 9650 3100 0    65   ~ 0
DATA4
Wire Wire Line
	4950 6000 5350 6000
Text Label 5150 6000 0    65   ~ 0
GND
Wire Wire Line
	5250 4800 5450 4800
Text Label 5350 4800 0    65   ~ 0
GND
Wire Wire Line
	6050 4400 7050 4400
Wire Wire Line
	7050 4400 7050 4900
Wire Wire Line
	8950 4900 8950 3000
Wire Wire Line
	8950 3000 8950 2100
Wire Wire Line
	8950 2100 7650 2100
Wire Wire Line
	7050 4900 8950 4900
Wire Wire Line
	7650 2300 7650 2100
Connection ~ 8950 3000
Wire Wire Line
	4250 6300 4550 6300
Wire Wire Line
	4550 6300 4750 6300
Wire Wire Line
	4750 6300 4750 6000
Wire Wire Line
	4550 6300 4550 6800
Wire Wire Line
	4550 6800 4850 6800
Connection ~ 4550 6300
Wire Wire Line
	1750 2100 1550 2300
Wire Wire Line
	1550 2300 1850 2500
Wire Wire Line
	1850 2800 1650 2900
Wire Wire Line
	1650 2900 1950 3000
Wire Wire Line
	1550 2900 1650 2900
Wire Wire Line
	1550 2900 1550 3400
Wire Wire Line
	1850 3300 1650 3400
Wire Wire Line
	1650 3400 1950 3500
Wire Wire Line
	1550 3400 1650 3400
Wire Wire Line
	1550 3400 1550 3900
Wire Wire Line
	1850 3800 1550 3900
Wire Wire Line
	1550 3900 1850 4000
Wire Wire Line
	1550 3900 1450 4700
Wire Wire Line
	1850 5000 1750 5300
Wire Wire Line
	1750 5300 1950 5600
Wire Wire Line
	1450 4700 1750 5300
Wire Wire Line
	1550 1700 1550 2300
Wire Wire Line
	1550 1700 2450 1700
Wire Wire Line
	1950 4400 1750 4400
Wire Wire Line
	1750 4400 1450 4700
Wire Wire Line
	1950 4800 1550 4800
Wire Wire Line
	1550 4800 1450 4700
Wire Wire Line
	2450 1700 2450 1900
Connection ~ 1550 2900
Connection ~ 1550 3400
Connection ~ 1550 3900
Connection ~ 1450 4700
Connection ~ 1550 2300
Connection ~ 1650 2900
Connection ~ 1650 3400
Connection ~ 1750 5300
Connection ~ 2450 1700
Wire Wire Line
	10550 3700 10850 3700
Text Label 10650 3700 0    65   ~ 0
GND
Wire Wire Line
	10550 3500 10850 3500
Text Label 10650 3500 0    65   ~ 0
GND
Wire Wire Line
	10550 3300 10850 3300
Text Label 10650 3300 0    65   ~ 0
GND
Wire Wire Line
	10550 3100 10850 3100
Text Label 10650 3100 0    65   ~ 0
GND
Wire Wire Line
	1950 2300 2350 2400
Wire Wire Line
	2350 2400 2350 2200
Wire Wire Line
	2050 2900 2550 2900
Wire Wire Line
	2250 2500 2550 2500
Wire Wire Line
	2550 2500 2650 2400
Wire Wire Line
	2750 3800 3650 2900
Wire Wire Line
	3650 2900 4250 2900
Wire Wire Line
	4250 2900 4550 2600
Wire Wire Line
	2250 3700 2350 3700
Wire Wire Line
	2350 3700 2550 3800
Wire Wire Line
	2550 3800 2650 3800
Wire Wire Line
	2650 3800 2850 3900
Wire Wire Line
	2850 3900 2750 3800
Connection ~ 2850 3900
Connection ~ 2550 3800
Connection ~ 3650 2900
Wire Wire Line
	2850 5500 3650 4000
Wire Wire Line
	3650 4000 3650 3300
Wire Wire Line
	3650 3300 4050 3300
Wire Wire Line
	4050 3300 4550 2800
Wire Wire Line
	2350 5100 2450 5100
Wire Wire Line
	2450 5100 2550 5200
Wire Wire Line
	2550 5200 2750 5200
Wire Wire Line
	2750 5200 2850 5500
Connection ~ 2850 5500
Connection ~ 3650 3300
Connection ~ 2550 5200
Wire Wire Line
	2350 3000 2850 3000
Wire Wire Line
	3350 3800 2850 4700
Wire Wire Line
	3350 3800 3350 3500
Wire Wire Line
	3350 3500 3650 3100
Wire Wire Line
	3650 3100 4150 3100
Wire Wire Line
	4150 3100 4550 2700
Wire Wire Line
	2250 4200 2350 4200
Wire Wire Line
	2350 4200 2550 4600
Wire Wire Line
	2550 4600 2650 4600
Wire Wire Line
	2650 4600 2850 4700
Connection ~ 2850 4700
Connection ~ 3650 3100
Connection ~ 2550 4600
Wire Wire Line
	3550 4500 3750 4500
Wire Wire Line
	3750 4700 3550 4800
Wire Wire Line
	3350 4900 3750 4900
Wire Wire Line
	2050 3400 2550 3400
Wire Wire Line
	3750 5100 3650 5200
Wire Wire Line
	3650 5200 3350 5200
Wire Wire Line
	2350 3500 2850 3500
Wire Wire Line
	2250 3200 2450 3200
Wire Wire Line
	2450 3200 2550 3300
Wire Wire Line
	2550 3300 2750 3300
Wire Wire Line
	2750 3300 2850 3400
Wire Wire Line
	3650 2700 4350 2700
Wire Wire Line
	4350 2700 4550 2500
Wire Wire Line
	2850 3400 2950 3400
Wire Wire Line
	2950 3400 3650 2700
Connection ~ 2550 3300
Connection ~ 2850 3400
Connection ~ 3650 2700
Wire Wire Line
	1950 3900 2550 3900
Wire Wire Line
	2250 4000 2850 4000
Wire Wire Line
	2750 2400 2750 2500
Wire Wire Line
	2750 2400 2750 2200
Wire Wire Line
	2750 2200 2450 2200
Wire Wire Line
	2450 2200 2350 2100
Wire Wire Line
	2350 2100 2250 2100
Wire Wire Line
	2750 2400 3550 2400
Wire Wire Line
	3550 2400 3650 2300
Wire Wire Line
	3650 2300 4550 2300
Wire Wire Line
	4550 2300 4750 2300
Connection ~ 2750 2400
Connection ~ 3650 2300
Connection ~ 2450 2200
Connection ~ 4550 2300
Wire Wire Line
	2250 4300 2350 4400
Wire Wire Line
	1850 4700 2550 4700
Wire Wire Line
	2350 4800 2850 4800
Wire Wire Line
	2250 5000 2350 5200
Wire Wire Line
	2150 5300 2550 5300
Wire Wire Line
	2350 5600 2850 5600
Wire Wire Line
	3250 2900 3650 2500
Wire Wire Line
	3650 2500 4450 2500
Wire Wire Line
	4450 2500 4550 2400
Wire Wire Line
	2250 2700 2350 2700
Wire Wire Line
	2350 2700 2550 2800
Wire Wire Line
	2550 2800 2650 2800
Wire Wire Line
	2650 2800 2850 2900
Wire Wire Line
	2850 2900 3250 2900
Connection ~ 3650 2500
Connection ~ 2550 2800
Connection ~ 2850 2900
Wire Wire Line
	4950 5300 5750 5300
Wire Wire Line
	5750 5300 5750 7100
Wire Wire Line
	5750 7100 5050 7100
Wire Wire Line
	5050 6800 5050 7100
Text Label 5750 5400 0    65   ~ 0
PRXD
Wire Wire Line
	4950 5500 5650 5500
Wire Wire Line
	5650 5500 5650 7000
Wire Wire Line
	5650 7000 5150 7000
Wire Wire Line
	5150 7000 5150 6800
Text Label 5350 5500 0    65   ~ 0
PTXD
Wire Wire Line
	3750 5500 3550 5500
Text Label 3550 5500 0    65   ~ 0
RX
Wire Wire Line
	10150 1700 9750 1700
Wire Wire Line
	10550 3800 10850 3800
Text Label 10650 3800 0    65   ~ 0
SCK1
Wire Wire Line
	7550 2100 7550 2600
Wire Wire Line
	7550 2600 7650 2700
Wire Wire Line
	7350 2800 7350 3700
Wire Wire Line
	7350 3700 8250 3700
Wire Wire Line
	10550 3600 10850 3600
Text Label 10650 3600 0    65   ~ 0
SCK2
Wire Wire Line
	7150 3500 7150 3900
Wire Wire Line
	7150 3900 8250 3900
Wire Wire Line
	10550 3400 10850 3400
Text Label 10650 3400 0    65   ~ 0
SCK3
Wire Wire Line
	10550 3200 10850 3200
Text Label 10650 3200 0    65   ~ 0
SCK4
Wire Wire Line
	6650 4200 6750 4300
Wire Wire Line
	6750 4300 8250 4300
Wire Wire Line
	3750 5300 3550 5300
Text Label 3550 5300 0    65   ~ 0
TX
Wire Wire Line
	9750 1500 10150 1500
Wire Wire Line
	5950 2200 5850 1800
Wire Wire Line
	5850 1800 5950 1800
Wire Wire Line
	5950 1800 5950 1600
Wire Wire Line
	5950 1600 8550 1600
Wire Wire Line
	8550 1600 8550 2500
Wire Wire Line
	8550 3600 8550 2500
Wire Wire Line
	5950 4300 5950 3900
Wire Wire Line
	5950 3900 5350 3900
Wire Wire Line
	5350 3900 5350 1600
Wire Wire Line
	5350 1600 5950 1600
Wire Wire Line
	5950 2200 5850 2800
Wire Wire Line
	5850 2800 5850 2900
Wire Wire Line
	5850 2900 6150 3000
Wire Wire Line
	5950 3600 6150 3600
Wire Wire Line
	6150 3000 6150 3600
Wire Wire Line
	6150 3600 6350 3900
Wire Wire Line
	6350 3900 6350 4200
Wire Wire Line
	5850 4300 5950 4300
Wire Wire Line
	6050 4300 6150 4200
Wire Wire Line
	6150 4200 6350 4200
Wire Wire Line
	5850 2100 5950 2100
Wire Wire Line
	5950 2100 5950 2200
Connection ~ 5950 1600
Connection ~ 8550 2500
Connection ~ 5950 2200
Connection ~ 5950 4300
Connection ~ 5850 2900
Connection ~ 6150 3600
Wire Wire Line
	9950 3800 9650 3800
Text Label 9650 3800 0    65   ~ 0
VDD
Wire Wire Line
	9950 3600 9650 3600
Text Label 9650 3600 0    65   ~ 0
VDD
Wire Wire Line
	9950 3400 9650 3400
Text Label 9650 3400 0    65   ~ 0
VDD
Wire Wire Line
	9950 3200 9650 3200
Text Label 9650 3200 0    65   ~ 0
VDD
Text GLabel 4350 6000 0    10   UnSpc ~ 0
5V
Text GLabel 4250 6000 1    10   UnSpc ~ 0
5V
Text GLabel 2450 1500 0    10   UnSpc ~ 0
5V
Text GLabel 5150 2800 2    10   UnSpc ~ 0
5V
Text GLabel 5150 2700 2    10   UnSpc ~ 0
5V
Text GLabel 5150 2600 2    10   UnSpc ~ 0
5V
Text GLabel 5150 2500 2    10   UnSpc ~ 0
5V
Text GLabel 5150 2400 2    10   UnSpc ~ 0
5V
Text GLabel 5150 2300 2    10   UnSpc ~ 0
5V
Text GLabel 5250 4600 2    10   UnSpc ~ 0
5V
Text GLabel 915  1026 0    10   UnSpc ~ 0
5V
Text Label 5450 2100 2    10   ~ 0
DATA1
Text Label 7650 2800 2    10   ~ 0
DATA1
Text Label 9950 3700 2    10   ~ 0
DATA1
Text Label 9950 3500 2    10   ~ 0
DATA2
Text Label 5450 2900 2    10   ~ 0
DATA2
Text Label 8250 3800 2    10   ~ 0
DATA2
Text Label 5550 3600 2    10   ~ 0
DATA3
Text Label 8250 4100 2    10   ~ 0
DATA3
Text Label 9950 3300 2    10   ~ 0
DATA3
Text Label 5450 4300 2    10   ~ 0
DATA4
Text Label 8150 4500 2    10   ~ 0
DATA4
Text Label 9950 3100 2    10   ~ 0
DATA4
Text GLabel 4950 6000 2    10   UnSpc ~ 0
GND
Text GLabel 5250 4800 2    10   UnSpc ~ 0
GND
Text GLabel 8950 3000 0    10   UnSpc ~ 0
GND
Text GLabel 4250 6300 3    10   UnSpc ~ 0
GND
Text GLabel 4850 6800 3    10   UnSpc ~ 0
GND
Text GLabel 1750 2100 0    10   UnSpc ~ 0
GND
Text GLabel 1550 2300 0    10   UnSpc ~ 0
GND
Text GLabel 1850 2500 0    10   UnSpc ~ 0
GND
Text GLabel 1850 2800 0    10   UnSpc ~ 0
GND
Text GLabel 1650 2900 0    10   UnSpc ~ 0
GND
Text GLabel 1950 3000 0    10   UnSpc ~ 0
GND
Text GLabel 1850 3300 0    10   UnSpc ~ 0
GND
Text GLabel 1650 3400 0    10   UnSpc ~ 0
GND
Text GLabel 1950 3500 0    10   UnSpc ~ 0
GND
Text GLabel 1850 3800 0    10   UnSpc ~ 0
GND
Text GLabel 1550 3900 0    10   UnSpc ~ 0
GND
Text GLabel 1850 4000 0    10   UnSpc ~ 0
GND
Text GLabel 1450 4700 0    10   UnSpc ~ 0
GND
Text GLabel 1850 5000 0    10   UnSpc ~ 0
GND
Text GLabel 1750 5300 0    10   UnSpc ~ 0
GND
Text GLabel 1950 5600 0    10   UnSpc ~ 0
GND
Text GLabel 2450 1700 0    10   UnSpc ~ 0
GND
Text GLabel 1950 4400 0    10   UnSpc ~ 0
GND
Text GLabel 1950 4800 0    10   UnSpc ~ 0
GND
Text GLabel 2450 1900 0    10   UnSpc ~ 0
GND
Text GLabel 10550 3700 2    10   UnSpc ~ 0
GND
Text GLabel 10550 3500 2    10   UnSpc ~ 0
GND
Text GLabel 10550 3300 2    10   UnSpc ~ 0
GND
Text GLabel 10550 3100 2    10   UnSpc ~ 0
GND
Text Label 4950 4600 0    10   ~ 0
N$2
Text Label 4950 4600 2    10   ~ 0
N$2
Text Label 1950 2300 0    10   ~ 0
N$4
Text Label 2350 2200 1    10   ~ 0
N$4
Text Label 2050 2900 0    10   ~ 0
N$5
Text Label 2550 2900 2    10   ~ 0
N$5
Text Label 2250 2500 0    10   ~ 0
N$6
Text Label 2650 2400 1    10   ~ 0
N$6
Text Label 4950 4800 0    10   ~ 0
N$7
Text Label 4950 4800 2    10   ~ 0
N$7
Text Label 3650 2900 2    10   ~ 0
N$10
Text Label 2250 3700 2    10   ~ 0
N$10
Text Label 2550 3800 2    10   ~ 0
N$10
Text Label 2850 3900 2    10   ~ 0
N$10
Text Label 4550 2600 2    10   ~ 0
N$10
Text Label 2150 2100 0    10   ~ 0
N$11
Text Label 2150 2100 1    10   ~ 0
N$11
Text Label 3650 3300 2    10   ~ 0
N$12
Text Label 2850 5500 2    10   ~ 0
N$12
Text Label 2350 5100 2    10   ~ 0
N$12
Text Label 2550 5200 2    10   ~ 0
N$12
Text Label 4550 2800 2    10   ~ 0
N$12
Text Label 2250 2800 0    10   ~ 0
N$14
Text Label 2250 2800 2    10   ~ 0
N$14
Text Label 2250 3800 0    10   ~ 0
N$17
Text Label 2250 3800 2    10   ~ 0
N$17
Text Label 2350 3000 0    10   ~ 0
N$18
Text Label 2850 3000 2    10   ~ 0
N$18
Text Label 3650 3100 2    10   ~ 0
N$19
Text Label 2250 4200 2    10   ~ 0
N$19
Text Label 2550 4600 2    10   ~ 0
N$19
Text Label 2850 4700 2    10   ~ 0
N$19
Text Label 4550 2700 2    10   ~ 0
N$19
Text Label 3550 4500 1    10   ~ 0
N$20
Text Label 3750 4500 2    10   ~ 0
N$20
Text Label 3750 4700 2    10   ~ 0
N$21
Text Label 3550 4800 3    10   ~ 0
N$21
Text Label 3350 4900 1    10   ~ 0
N$22
Text Label 3750 4900 2    10   ~ 0
N$22
Text Label 2250 3300 0    10   ~ 0
N$23
Text Label 2250 3300 2    10   ~ 0
N$23
Text Label 2050 3400 0    10   ~ 0
N$24
Text Label 2550 3400 2    10   ~ 0
N$24
Text Label 3750 5100 2    10   ~ 0
N$25
Text Label 3350 5200 3    10   ~ 0
N$25
Text Label 2350 3500 0    10   ~ 0
N$26
Text Label 2850 3500 2    10   ~ 0
N$26
Text Label 2850 3400 2    10   ~ 0
N$27
Text Label 2250 3200 2    10   ~ 0
N$27
Text Label 2550 3300 2    10   ~ 0
N$27
Text Label 3650 2700 2    10   ~ 0
N$27
Text Label 4550 2500 2    10   ~ 0
N$27
Text Label 1950 3900 0    10   ~ 0
N$28
Text Label 2550 3900 2    10   ~ 0
N$28
Text Label 2250 4000 0    10   ~ 0
N$29
Text Label 2850 4000 2    10   ~ 0
N$29
Text Label 2250 2100 1    10   ~ 0
N$30
Text Label 2450 2200 1    10   ~ 0
N$30
Text Label 2750 2400 1    10   ~ 0
N$30
Text Label 3650 2300 2    10   ~ 0
N$30
Text Label 4550 2300 2    10   ~ 0
N$30
Text Label 2350 4400 0    10   ~ 0
N$31
Text Label 2250 4300 2    10   ~ 0
N$31
Text Label 1850 4700 0    10   ~ 0
N$32
Text Label 2550 4700 2    10   ~ 0
N$32
Text Label 2350 4800 0    10   ~ 0
N$33
Text Label 2850 4800 2    10   ~ 0
N$33
Text Label 2250 5000 0    10   ~ 0
N$35
Text Label 2350 5200 2    10   ~ 0
N$35
Text Label 2150 5300 0    10   ~ 0
N$37
Text Label 2550 5300 2    10   ~ 0
N$37
Text Label 2350 5600 0    10   ~ 0
N$38
Text Label 2850 5600 2    10   ~ 0
N$38
Text Label 3650 2500 2    10   ~ 0
N$40
Text Label 2250 2700 2    10   ~ 0
N$40
Text Label 2550 2800 2    10   ~ 0
N$40
Text Label 2850 2900 2    10   ~ 0
N$40
Text Label 4550 2400 2    10   ~ 0
N$40
Text Label 4950 5300 0    10   ~ 0
PRXD
Text Label 5050 6800 3    10   ~ 0
PRXD
Text Label 4950 5500 0    10   ~ 0
PTXD
Text Label 5150 6800 3    10   ~ 0
PTXD
Text Label 3750 5500 2    10   ~ 0
RX
Text Label 10150 1700 2    10   ~ 0
RX
Text Label 10550 3800 0    10   ~ 0
SCK1
Text Label 7650 2700 2    10   ~ 0
SCK1
Text Label 8250 3700 2    10   ~ 0
SCK2
Text Label 10550 3600 0    10   ~ 0
SCK2
Text Label 8250 3900 2    10   ~ 0
SCK3
Text Label 10550 3400 0    10   ~ 0
SCK3
Text Label 10550 3200 0    10   ~ 0
SCK4
Text Label 8250 4300 2    10   ~ 0
SCK4
Text Label 3750 5300 2    10   ~ 0
TX
Text Label 10150 1500 2    10   ~ 0
TX
Text GLabel 8550 2500 0    10   UnSpc ~ 0
VDD
Text GLabel 5850 2900 2    10   UnSpc ~ 0
VDD
Text GLabel 5950 3600 2    10   UnSpc ~ 0
VDD
Text GLabel 5850 4300 2    10   UnSpc ~ 0
VDD
Text GLabel 5850 2100 2    10   UnSpc ~ 0
VDD
Text GLabel 9950 3800 0    10   UnSpc ~ 0
VDD
Text GLabel 9950 3600 0    10   UnSpc ~ 0
VDD
Text GLabel 9950 3400 0    10   UnSpc ~ 0
VDD
Text GLabel 9950 3200 0    10   UnSpc ~ 0
VDD
Wire Wire Line
	5950 4300 6050 4300
Wire Wire Line
	1550 2300 1550 2900
$EndSCHEMATC
